a:62:{i:0;a:3:{i:0;s:14:"document_start";i:1;a:0:{}i:2;i:0;}i:1;a:3:{i:0;s:6:"header";i:1;a:3:{i:0;s:10:"PlayGround";i:1;i:1;i:2;i:2;}i:2;i:2;}i:2;a:3:{i:0;s:12:"section_open";i:1;a:1:{i:0;i:1;}i:2;i:2;}i:3;a:3:{i:0;s:6:"p_open";i:1;a:0:{}i:2;i:2;}i:4;a:3:{i:0;s:5:"cdata";i:1;a:1:{i:0;s:21:"dokuwiki 資料展示";}i:2;i:28;}i:5;a:3:{i:0;s:7:"p_close";i:1;a:0:{}i:2;i:49;}i:6;a:3:{i:0;s:13:"section_close";i:1;a:0:{}i:2;i:51;}i:7;a:3:{i:0;s:6:"header";i:1;a:3:{i:0;s:18:"遠端影片引用";i:1;i:1;i:2;i:51;}i:2;i:51;}i:8;a:3:{i:0;s:12:"section_open";i:1;a:1:{i:0;i:1;}i:2;i:51;}i:9;a:3:{i:0;s:6:"plugin";i:1;a:4:{i:0;s:6:"vshare";i:1;a:9:{s:4:"site";s:5:"vimeo";s:5:"video";s:8:"92906489";s:3:"url";s:38:"http://player.vimeo.com/video/92906489";s:4:"vars";a:0:{}s:5:"align";i:0;s:5:"width";i:425;s:6:"height";i:350;s:5:"title";s:6:"引用";s:4:"type";s:6:"iframe";}i:2;i:5;i:3;s:25:"{{vimeo>92906489|引用}}";}i:2;i:85;}i:10;a:3:{i:0;s:13:"section_close";i:1;a:0:{}i:2;i:116;}i:11;a:3:{i:0;s:6:"header";i:1;a:3:{i:0;s:18:"遠端圖片引用";i:1;i:1;i:2;i:116;}i:2;i:116;}i:12;a:3:{i:0;s:12:"section_open";i:1;a:1:{i:0;i:1;}i:2;i:116;}i:13;a:3:{i:0;s:6:"p_open";i:1;a:0:{}i:2;i:116;}i:14;a:3:{i:0;s:5:"cdata";i:1;a:1:{i:0;s:35:"CMSimply 網站上的圖片引用 (";}i:2;i:150;}i:15;a:3:{i:0;s:14:"multiplyentity";i:1;a:2:{i:0;s:3:"480";i:1;s:3:"320";}i:2;i:185;}i:16;a:3:{i:0;s:5:"cdata";i:1;a:1:{i:0;s:17:" 為圖片大小)";}i:2;i:192;}i:17;a:3:{i:0;s:7:"p_close";i:1;a:0:{}i:2;i:209;}i:18;a:3:{i:0;s:6:"p_open";i:1;a:0:{}i:2;i:209;}i:19;a:3:{i:0;s:13:"externalmedia";i:1;a:7:{i:0;s:130:"http://public-cmsimply.rhcloud.com/download/?filepath=/var/lib/openshift/52fa148250044683d30001c1/app-root/data//images/Desert.jpg";i:1;N;i:2;N;i:3;s:3:"480";i:4;s:3:"320";i:5;s:5:"cache";i:6;s:7:"details";}i:2;i:211;}i:20;a:3:{i:0;s:7:"p_close";i:1;a:0:{}i:2;i:353;}i:21;a:3:{i:0;s:13:"section_close";i:1;a:0:{}i:2;i:355;}i:22;a:3:{i:0;s:6:"header";i:1;a:3:{i:0;s:24:"遠端零件檔案引用";i:1;i:1;i:2;i:355;}i:2;i:355;}i:23;a:3:{i:0;s:12:"section_open";i:1;a:1:{i:0;i:1;}i:2;i:355;}i:24;a:3:{i:0;s:6:"p_open";i:1;a:0:{}i:2;i:355;}i:25;a:3:{i:0;s:13:"internalmedia";i:1;a:7:{i:0;s:59:"url>https://public-cmsimply.rhcloud.com/static/viewstl.html";i:1;N;i:2;N;i:3;N;i:4;N;i:5;s:5:"cache";i:6;s:7:"details";}i:2;i:395;}i:26;a:3:{i:0;s:7:"p_close";i:1;a:0:{}i:2;i:487;}i:27;a:3:{i:0;s:13:"section_close";i:1;a:0:{}i:2;i:489;}i:28;a:3:{i:0;s:6:"header";i:1;a:3:{i:0;s:22:"Python 程式碼引用";i:1;i:1;i:2;i:489;}i:2;i:489;}i:29;a:3:{i:0;s:12:"section_open";i:1;a:1:{i:0;i:1;}i:2;i:489;}i:30;a:3:{i:0;s:4:"code";i:1;a:3:{i:0;s:788:"
import hashlib
import string
import random
 
''' sha1 secure hashes '''
 
# convert user_password into sha1 encoded string
def gen_password(user_password):
    return hashlib.sha1(user_password.encode("utf-8")).hexdigest()
 
# generate random user password
def user_password(size=6, chars=string.ascii_uppercase + string.digits):
    return ''.join(random.choice(chars) for _ in range(size))
 
# read lines from file
lines = open("2b_stud_list.txt", "r", encoding="utf-8").read().splitlines()
 
# we may also need to notice every user with computer generated passwords
for i in range(len(lines)):
    password = user_password(8, "ABCDEFGHJKMNPQRSTUVWXYZ23456789")
    print(lines[i].split("\t")[0], "-", password, "-", gen_password(password), \
            "-", lines[i].split("\t")[1])
";i:1;s:6:"python";i:2;N;}i:2;i:532;}i:31;a:3:{i:0;s:13:"section_close";i:1;a:0:{}i:2;i:1337;}i:32;a:3:{i:0;s:6:"header";i:1;a:3:{i:0;s:18:"內部頁面引用";i:1;i:1;i:2;i:1337;}i:2;i:1337;}i:33;a:3:{i:0;s:12:"section_open";i:1;a:1:{i:0;i:1;}i:2;i:1337;}i:34;a:3:{i:0;s:6:"p_open";i:1;a:0:{}i:2;i:1337;}i:35;a:3:{i:0;s:12:"internallink";i:1;a:2:{i:0;s:30:"協同產品設計:2014s_week1";i:1;N;}i:2;i:1371;}i:36;a:3:{i:0;s:7:"p_close";i:1;a:0:{}i:2;i:1405;}i:37;a:3:{i:0;s:13:"section_close";i:1;a:0:{}i:2;i:1407;}i:38;a:3:{i:0;s:6:"header";i:1;a:3:{i:0;s:24:"排序列表資料引用";i:1;i:1;i:2;i:1407;}i:2;i:1407;}i:39;a:3:{i:0;s:12:"section_open";i:1;a:1:{i:0;i:1;}i:2;i:1407;}i:40;a:3:{i:0;s:6:"p_open";i:1;a:0:{}i:2;i:1407;}i:41;a:3:{i:0;s:5:"cdata";i:1;a:1:{i:0;s:43:"協同產品設計實習期中成績來源:";}i:2;i:1447;}i:42;a:3:{i:0;s:7:"p_close";i:1;a:0:{}i:2;i:1491;}i:43;a:3:{i:0;s:10:"listo_open";i:1;a:0:{}i:2;i:1491;}i:44;a:3:{i:0;s:13:"listitem_open";i:1;a:1:{i:0;i:1;}i:2;i:1491;}i:45;a:3:{i:0;s:16:"listcontent_open";i:1;a:0:{}i:2;i:1491;}i:46;a:3:{i:0;s:5:"cdata";i:1;a:1:{i:0;s:86:" 各組每週成員協同設計自評成績總和/週數, 佔各學員期中成績 50%";}i:2;i:1495;}i:47;a:3:{i:0;s:17:"listcontent_close";i:1;a:0:{}i:2;i:1581;}i:48;a:3:{i:0;s:14:"listitem_close";i:1;a:0:{}i:2;i:1581;}i:49;a:3:{i:0;s:13:"listitem_open";i:1;a:1:{i:0;i:1;}i:2;i:1581;}i:50;a:3:{i:0;s:16:"listcontent_open";i:1;a:0:{}i:2;i:1581;}i:51;a:3:{i:0;s:5:"cdata";i:1;a:1:{i:0;s:143:" 各組期中報告成績(由老師與助教評分), 佔各學員期中成績 25%, 學員期中報告自評成績, 佔各學員期中成績 25%";}i:2;i:1585;}i:52;a:3:{i:0;s:17:"listcontent_close";i:1;a:0:{}i:2;i:1728;}i:53;a:3:{i:0;s:14:"listitem_close";i:1;a:0:{}i:2;i:1728;}i:54;a:3:{i:0;s:13:"listitem_open";i:1;a:1:{i:0;i:1;}i:2;i:1728;}i:55;a:3:{i:0;s:16:"listcontent_open";i:1;a:0:{}i:2;i:1728;}i:56;a:3:{i:0;s:5:"cdata";i:1;a:1:{i:0;s:47:" 平常表現, 加減分在總分 10 分以內.";}i:2;i:1732;}i:57;a:3:{i:0;s:17:"listcontent_close";i:1;a:0:{}i:2;i:1779;}i:58;a:3:{i:0;s:14:"listitem_close";i:1;a:0:{}i:2;i:1779;}i:59;a:3:{i:0;s:11:"listo_close";i:1;a:0:{}i:2;i:1779;}i:60;a:3:{i:0;s:13:"section_close";i:1;a:0:{}i:2;i:1779;}i:61;a:3:{i:0;s:12:"document_end";i:1;a:0:{}i:2;i:1779;}}