a:10:{i:0;a:3:{i:0;s:14:"document_start";i:1;a:0:{}i:2;i:0;}i:1;a:3:{i:0;s:6:"header";i:1;a:3:{i:0;s:17:"IMAP 查驗帳號";i:1;i:3;i:2;i:1;}i:2;i:1;}i:2;a:3:{i:0;s:12:"section_open";i:1;a:1:{i:0;i:3;}i:2;i:1;}i:3;a:3:{i:0;s:6:"p_open";i:1;a:0:{}i:2;i:1;}i:4;a:3:{i:0;s:13:"internalmedia";i:1;a:7:{i:0;s:21:":imap執行結果.gif";i:1;s:3:"600";i:2;N;i:3;N;i:4;N;i:5;s:5:"cache";i:6;s:7:"details";}i:2;i:29;}i:5;a:3:{i:0;s:5:"cdata";i:1;a:1:{i:0;s:0:"";}i:2;i:59;}i:6;a:3:{i:0;s:7:"p_close";i:1;a:0:{}i:2;i:65;}i:7;a:3:{i:0;s:4:"code";i:1;a:3:{i:0;s:409:"
import imaplib
 
# use gmail as imap server
mail = imaplib.IMAP4_SSL('imap.gmail.com', 993)
try:
    # login to gmail imap server (need to enable imap function on email@address)
    status, response = mail.login('email@address', 'password')
    if response[0].decode("UTF-8").find("Success"):
        # login Sucess
        print("login")
except:
    # can not login
    print("can not login")
mail.logout()
";i:1;s:6:"python";i:2;s:7:"imap.py";}i:2;i:65;}i:8;a:3:{i:0;s:13:"section_close";i:1;a:0:{}i:2;i:497;}i:9;a:3:{i:0;s:12:"document_end";i:1;a:0:{}i:2;i:497;}}