a:55:{i:0;a:3:{i:0;s:14:"document_start";i:1;a:0:{}i:2;i:0;}i:1;a:3:{i:0;s:6:"p_open";i:1;a:0:{}i:2;i:0;}i:2;a:3:{i:0;s:12:"internallink";i:1;a:2:{i:0;s:24:"協同產品設計實習";i:1;N;}i:2;i:1;}i:3;a:3:{i:0;s:5:"cdata";i:1;a:1:{i:0;s:10:" 第七組";}i:2;i:29;}i:4;a:3:{i:0;s:7:"p_close";i:1;a:0:{}i:2;i:39;}i:5;a:3:{i:0;s:12:"preformatted";i:1;a:1:{i:0;s:63:"組員
49823207 賴思綺
40023207 傅彥綺
40123110 劉翼瑄";}i:2;i:39;}i:6;a:3:{i:0;s:10:"listu_open";i:1;a:0:{}i:2;i:112;}i:7;a:3:{i:0;s:13:"listitem_open";i:1;a:1:{i:0;i:1;}i:2;i:112;}i:8;a:3:{i:0;s:16:"listcontent_open";i:1;a:0:{}i:2;i:112;}i:9;a:3:{i:0;s:5:"cdata";i:1;a:1:{i:0;s:20:" 內容管理規劃:";}i:2;i:116;}i:10;a:3:{i:0;s:17:"listcontent_close";i:1;a:0:{}i:2;i:136;}i:11;a:3:{i:0;s:14:"listitem_close";i:1;a:0:{}i:2;i:136;}i:12;a:3:{i:0;s:11:"listu_close";i:1;a:0:{}i:2;i:136;}i:13;a:3:{i:0;s:10:"listo_open";i:1;a:0:{}i:2;i:137;}i:14;a:3:{i:0;s:13:"listitem_open";i:1;a:1:{i:0;i:1;}i:2;i:137;}i:15;a:3:{i:0;s:16:"listcontent_open";i:1;a:0:{}i:2;i:137;}i:16;a:3:{i:0;s:5:"cdata";i:1;a:1:{i:0;s:113:" 有序列表項目圖像檔案(png, jpg, gif) 將放在各組員的 CMSimply 網站, 然後以連結置入頁面";}i:2;i:141;}i:17;a:3:{i:0;s:17:"listcontent_close";i:1;a:0:{}i:2;i:254;}i:18;a:3:{i:0;s:14:"listitem_close";i:1;a:0:{}i:2;i:254;}i:19;a:3:{i:0;s:13:"listitem_open";i:1;a:1:{i:0;i:1;}i:2;i:254;}i:20;a:3:{i:0;s:16:"listcontent_open";i:1;a:0:{}i:2;i:254;}i:21;a:3:{i:0;s:5:"cdata";i:1;a:1:{i:0;s:86:" 一般檔案(7zip, zip, doc, leo 等) 將放在 copy.com, 然後以連結置入頁面";}i:2;i:258;}i:22;a:3:{i:0;s:17:"listcontent_close";i:1;a:0:{}i:2;i:344;}i:23;a:3:{i:0;s:14:"listitem_close";i:1;a:0:{}i:2;i:344;}i:24;a:3:{i:0;s:13:"listitem_open";i:1;a:1:{i:0;i:1;}i:2;i:344;}i:25;a:3:{i:0;s:16:"listcontent_open";i:1;a:0:{}i:2;i:344;}i:26;a:3:{i:0;s:5:"cdata";i:1;a:1:{i:0;s:78:" 影片檔案(flv) 將放在 Vimeo, 然後以 vshare plugin 語法置入頁面";}i:2;i:348;}i:27;a:3:{i:0;s:17:"listcontent_close";i:1;a:0:{}i:2;i:426;}i:28;a:3:{i:0;s:14:"listitem_close";i:1;a:0:{}i:2;i:426;}i:29;a:3:{i:0;s:13:"listitem_open";i:1;a:1:{i:0;i:1;}i:2;i:426;}i:30;a:3:{i:0;s:16:"listcontent_open";i:1;a:0:{}i:2;i:426;}i:31;a:3:{i:0;s:5:"cdata";i:1;a:1:{i:0;s:85:" 零件檔案(stl) 將放在各組員的 CMSimply 網站, 然後以連結置入頁面";}i:2;i:430;}i:32;a:3:{i:0;s:17:"listcontent_close";i:1;a:0:{}i:2;i:515;}i:33;a:3:{i:0;s:14:"listitem_close";i:1;a:0:{}i:2;i:515;}i:34;a:3:{i:0;s:13:"listitem_open";i:1;a:1:{i:0;i:1;}i:2;i:515;}i:35;a:3:{i:0;s:16:"listcontent_open";i:1;a:0:{}i:2;i:515;}i:36;a:3:{i:0;s:5:"cdata";i:1;a:1:{i:0;s:15:" 遠端桌面: ";}i:2;i:519;}i:37;a:3:{i:0;s:12:"externallink";i:1;a:2:{i:0;s:26:"https://www.nomachine.com/";i:1;N;}i:2;i:534;}i:38;a:3:{i:0;s:17:"listcontent_close";i:1;a:0:{}i:2;i:560;}i:39;a:3:{i:0;s:14:"listitem_close";i:1;a:0:{}i:2;i:560;}i:40;a:3:{i:0;s:11:"listo_close";i:1;a:0:{}i:2;i:560;}i:41;a:3:{i:0;s:6:"p_open";i:1;a:0:{}i:2;i:560;}i:42;a:3:{i:0;s:5:"cdata";i:1;a:1:{i:0;s:15:"php web server:";}i:2;i:562;}i:43;a:3:{i:0;s:7:"p_close";i:1;a:0:{}i:2;i:577;}i:44;a:3:{i:0;s:6:"p_open";i:1;a:0:{}i:2;i:577;}i:45;a:3:{i:0;s:12:"externallink";i:1;a:2:{i:0;s:55:"http://localhost:8080/brython/site/tests/yeneditor.html";i:1;N;}i:2;i:579;}i:46;a:3:{i:0;s:7:"p_close";i:1;a:0:{}i:2;i:634;}i:47;a:3:{i:0;s:6:"p_open";i:1;a:0:{}i:2;i:634;}i:48;a:3:{i:0;s:5:"cdata";i:1;a:1:{i:0;s:9:"mongoose:";}i:2;i:636;}i:49;a:3:{i:0;s:7:"p_close";i:1;a:0:{}i:2;i:645;}i:50;a:3:{i:0;s:6:"p_open";i:1;a:0:{}i:2;i:645;}i:51;a:3:{i:0;s:12:"externallink";i:1;a:2:{i:0;s:55:"http://localhost:8084/brython/site/tests/yeneditor.html";i:1;N;}i:2;i:647;}i:52;a:3:{i:0;s:5:"cdata";i:1;a:1:{i:0;s:0:"";}i:2;i:702;}i:53;a:3:{i:0;s:7:"p_close";i:1;a:0:{}i:2;i:702;}i:54;a:3:{i:0;s:12:"document_end";i:1;a:0:{}i:2;i:702;}}