a:60:{i:0;a:3:{i:0;s:14:"document_start";i:1;a:0:{}i:2;i:0;}i:1;a:3:{i:0;s:10:"listo_open";i:1;a:0:{}i:2;i:0;}i:2;a:3:{i:0;s:13:"listitem_open";i:1;a:1:{i:0;i:1;}i:2;i:0;}i:3;a:3:{i:0;s:16:"listcontent_open";i:1;a:0:{}i:2;i:0;}i:4;a:3:{i:0;s:5:"cdata";i:1;a:1:{i:0;s:52:" 在 OpenShift 建立一個 Python 3.3 應用程式.";}i:2;i:4;}i:5;a:3:{i:0;s:17:"listcontent_close";i:1;a:0:{}i:2;i:56;}i:6;a:3:{i:0;s:14:"listitem_close";i:1;a:0:{}i:2;i:56;}i:7;a:3:{i:0;s:13:"listitem_open";i:1;a:1:{i:0;i:1;}i:2;i:56;}i:8;a:3:{i:0;s:16:"listcontent_open";i:1;a:0:{}i:2;i:56;}i:9;a:3:{i:0;s:5:"cdata";i:1;a:1:{i:0;s:26:" Source Code 欄位填入:";}i:2;i:60;}i:10;a:3:{i:0;s:12:"externallink";i:1;a:2:{i:0;s:59:"https://cmsimply@bitbucket.org/cmsimply/public_cmsimply.git";i:1;N;}i:2;i:86;}i:11;a:3:{i:0;s:17:"listcontent_close";i:1;a:0:{}i:2;i:145;}i:12;a:3:{i:0;s:14:"listitem_close";i:1;a:0:{}i:2;i:145;}i:13;a:3:{i:0;s:13:"listitem_open";i:1;a:1:{i:0;i:1;}i:2;i:145;}i:14;a:3:{i:0;s:16:"listcontent_open";i:1;a:0:{}i:2;i:145;}i:15;a:3:{i:0;s:5:"cdata";i:1;a:1:{i:0;s:39:" Scaling 選擇 Scale with Web Traffic.";}i:2;i:149;}i:16;a:3:{i:0;s:17:"listcontent_close";i:1;a:0:{}i:2;i:188;}i:17;a:3:{i:0;s:14:"listitem_close";i:1;a:0:{}i:2;i:188;}i:18;a:3:{i:0;s:13:"listitem_open";i:1;a:1:{i:0;i:1;}i:2;i:188;}i:19;a:3:{i:0;s:16:"listcontent_open";i:1;a:0:{}i:2;i:188;}i:20;a:3:{i:0;s:5:"cdata";i:1;a:1:{i:0;s:82:" 完成後, 登入所建立的 CMSimply 網站, 內定的管理者密碼為: admin";}i:2;i:192;}i:21;a:3:{i:0;s:17:"listcontent_close";i:1;a:0:{}i:2;i:274;}i:22;a:3:{i:0;s:14:"listitem_close";i:1;a:0:{}i:2;i:274;}i:23;a:3:{i:0;s:13:"listitem_open";i:1;a:1:{i:0;i:1;}i:2;i:274;}i:24;a:3:{i:0;s:16:"listcontent_open";i:1;a:0:{}i:2;i:274;}i:25;a:3:{i:0;s:5:"cdata";i:1;a:1:{i:0;s:131:" 登入後, 選擇 config, 在 password 欄位中輸入您所選擇的管理者密碼後, 按下 send, 就可更改管理者密碼.";}i:2;i:278;}i:26;a:3:{i:0;s:17:"listcontent_close";i:1;a:0:{}i:2;i:409;}i:27;a:3:{i:0;s:14:"listitem_close";i:1;a:0:{}i:2;i:409;}i:28;a:3:{i:0;s:13:"listitem_open";i:1;a:1:{i:0;i:1;}i:2;i:409;}i:29;a:3:{i:0;s:16:"listcontent_open";i:1;a:0:{}i:2;i:409;}i:30;a:3:{i:0;s:5:"cdata";i:1;a:1:{i:0;s:32:" 有關 CMSimply 操作, 參考 ";}i:2;i:413;}i:31;a:3:{i:0;s:12:"externallink";i:1;a:2:{i:0;s:205:"https://wiki.mde.tw/doku.php?id=%E5%8D%94%E5%90%8C%E7%94%A2%E5%93%81%E8%A8%AD%E8%A8%88:%E5%8D%94%E5%90%8C%E7%94%A2%E5%93%81%E8%A8%AD%E8%A8%88%E7%92%B0%E5%A2%83:cmsimply_%E4%BD%BF%E7%94%A8%E6%89%8B%E5%86%8A";i:1;s:21:"CMSimply 使用手冊";}i:2;i:445;}i:32;a:3:{i:0;s:5:"cdata";i:1;a:1:{i:0;s:1:".";}i:2;i:676;}i:33;a:3:{i:0;s:17:"listcontent_close";i:1;a:0:{}i:2;i:677;}i:34;a:3:{i:0;s:14:"listitem_close";i:1;a:0:{}i:2;i:677;}i:35;a:3:{i:0;s:13:"listitem_open";i:1;a:1:{i:0;i:1;}i:2;i:677;}i:36;a:3:{i:0;s:16:"listcontent_open";i:1;a:0:{}i:2;i:677;}i:37;a:3:{i:0;s:5:"cdata";i:1;a:1:{i:0;s:83:" 請利用 git 將 OpenShift 上的 CMSimply 網站程式碼 clone 到近端環境.";}i:2;i:681;}i:38;a:3:{i:0;s:17:"listcontent_close";i:1;a:0:{}i:2;i:764;}i:39;a:3:{i:0;s:14:"listitem_close";i:1;a:0:{}i:2;i:764;}i:40;a:3:{i:0;s:13:"listitem_open";i:1;a:1:{i:0;i:1;}i:2;i:764;}i:41;a:3:{i:0;s:16:"listcontent_open";i:1;a:0:{}i:2;i:764;}i:42;a:3:{i:0;s:5:"cdata";i:1;a:1:{i:0;s:232:" 建立一個 Bitbucket 帳號, 建立一個對應的 repository, 在近端以 git remote add 指令, 針對上述所建立的 CMSimply 網站程式碼, 建立一個遠端同步程式倉儲, 利用 git push 將近端程式碼 步驟";}i:2;i:768;}i:43;a:3:{i:0;s:17:"listcontent_close";i:1;a:0:{}i:2;i:1000;}i:44;a:3:{i:0;s:14:"listitem_close";i:1;a:0:{}i:2;i:1000;}i:45;a:3:{i:0;s:13:"listitem_open";i:1;a:1:{i:0;i:1;}i:2;i:1000;}i:46;a:3:{i:0;s:16:"listcontent_open";i:1;a:0:{}i:2;i:1000;}i:47;a:3:{i:0;s:5:"cdata";i:1;a:1:{i:0;s:125:" 爾後修改 CMSimply 程式碼後, 將同步以 OpenShift 呈現網站, Bitbucket 則公佈所對應的 CMSimply 程式碼.";}i:2;i:1004;}i:48;a:3:{i:0;s:17:"listcontent_close";i:1;a:0:{}i:2;i:1129;}i:49;a:3:{i:0;s:14:"listitem_close";i:1;a:0:{}i:2;i:1129;}i:50;a:3:{i:0;s:11:"listo_close";i:1;a:0:{}i:2;i:1129;}i:51;a:3:{i:0;s:6:"p_open";i:1;a:0:{}i:2;i:1129;}i:52;a:3:{i:0;s:5:"cdata";i:1;a:1:{i:0;s:6:"vimeo:";}i:2;i:1131;}i:53;a:3:{i:0;s:7:"p_close";i:1;a:0:{}i:2;i:1138;}i:54;a:3:{i:0;s:6:"plugin";i:1;a:4:{i:0;s:6:"vshare";i:1;a:9:{s:4:"site";s:5:"vimeo";s:5:"video";s:8:"92928188";s:3:"url";s:38:"http://player.vimeo.com/video/92928188";s:4:"vars";a:0:{}s:5:"align";i:0;s:5:"width";i:425;s:6:"height";i:350;s:5:"title";s:0:"";s:4:"type";s:6:"iframe";}i:2;i:5;i:3;s:18:"{{vimeo>92928188}}";}i:2;i:1138;}i:55;a:3:{i:0;s:6:"p_open";i:1;a:0:{}i:2;i:1138;}i:56;a:3:{i:0;s:5:"cdata";i:1;a:1:{i:0;s:34:"將資料push到Bitbucket的步驟";}i:2;i:1158;}i:57;a:3:{i:0;s:7:"p_close";i:1;a:0:{}i:2;i:1192;}i:58;a:3:{i:0;s:12:"preformatted";i:1;a:1:{i:0;s:312:"Step 1: 在Bitbucket上Create一個新的專案
Step 2: 打開CMD
Step 3: cd your project
Step 4: git init
Step 5: git rommote add bitbucket url
Step 6: git config --global user.email "@email.com"
Step 7: git config --global user.name "name"
Step 8: git add .
Step 9: git commit -m "add file"
Step 10: git push

";}i:2;i:1192;}i:59;a:3:{i:0;s:12:"document_end";i:1;a:0:{}i:2;i:1192;}}